{
	"info": {
		"_postman_id": "6498456f-b98a-40c6-9701-4d4f92911ef4",
		"name": "PostCollections",
		"schema": "https://schema.getpostman.com/json/collection/v2.1.0/collection.json"
	},
	"item": [
		{
			"name": "POST API - RegisterUser - Example",
			"event": [
				{
					"listen": "test",
					"script": {
						"id": "0b243f25-2742-419c-b376-16673342a676",
						"exec": [
							" pm.test(\"Verify Status code is 201\", function () {",
							"     pm.response.to.have.status(201);",
							" });",
							"",
							" let jsonData = pm.response.json();",
							" //console.output(jsonData);",
							"  pm.test(\"Verify Success Code:\", function () {",
							"     pm.expect(jsonData.SuccessCode).to.eql(\"OPERATION_SUCCESS\");",
							" });",
							"pm.test(\"Verify Response Message:\", function () {",
							"    var jsonData = pm.response.json();",
							"    pm.expect(jsonData.Message).to.eql(\"Operation completed successfully\");",
							"});"
						],
						"type": "text/javascript"
					}
				},
				{
					"listen": "prerequest",
					"script": {
						"id": "8b266ff6-7d5a-4659-8de1-ac8cad6abc5d",
						"exec": [
							"   var result           = \"\";",
							"   var characters       = \"ABCDEFGHIJKLMNOPQRSTUVWXYZabcdefghijklmnopqrstuvwxyz0123456789\";",
							"   var charactersLength = characters.length;",
							"   for ( var i = 0; i < 99999; i++ ) {",
							"      result += characters.charAt(Math.floor(Math.random() * charactersLength));",
							"   }",
							"",
							"const body = {",
							"    ",
							"    \"FirstName\" : \"FirstName_\" + result,",
							"   ",
							"    \"LastName\" : \"Last_Name_\" + result,",
							"   ",
							"   \"UserName\" : \"UserName_\" + result ,",
							"   ",
							"   \"Password\" : \"Pswd\",",
							"   ",
							"   \"Email\" : \"email_\"+ result + \"@test.com\"",
							"   ",
							"}",
							"",
							"    pm.globals.set(\"body\", JSON.stringify(body));"
						],
						"type": "text/javascript"
					}
				}
			],
			"request": {
				"method": "POST",
				"header": [],
				"body": {
					"mode": "raw",
					"raw": "{{body}}",
					"options": {
						"raw": {
							"language": "json"
						}
					}
				},
				"url": {
					"raw": "http://restapi.demoqa.com/customer/register",
					"protocol": "http",
					"host": [
						"restapi",
						"demoqa",
						"com"
					],
					"path": [
						"customer",
						"register"
					]
				}
			},
			"response": []
		}
	],
	"protocolProfileBehavior": {}
}